{
    "/js/dashboard.js": "/js/dashboard.js",
    "/css/search.css": "/css/search.css",
    "/js/search.js": "/js/search.js",
    "/css/admin.css": "/css/admin.css",
    "/js/admin.js": "/js/admin.js",
    "/js/siteAdmin.js": "/js/siteAdmin.js",
    "/css/profile.css": "/css/profile.css",
    "/js/profile.js": "/js/profile.js",
    "/js/lists.js": "/js/lists.js",
    "/css/lists.css": "/css/lists.css",
    "/js/concerns.js": "/js/concerns.js",
    "/css/concerns.css": "/css/concerns.css",
    "/css/dashboard.css": "/css/dashboard.css",
    "/css/empty-app.css": "/css/empty-app.css",
    "/js/empty-vendor.js": "/js/empty-vendor.js",
    "/css/vendor.css": "/css/vendor.css",
    "/css/app.css": "/css/app.css",
    "/js/app.js": "/js/app.js",
    "/js/manifest.js": "/js/manifest.js",
    "/js/vendor.js": "/js/vendor.js",
    "/img/blank-profile.jpg": "/img/blank-profile.jpg"
}